Division,WeightClassKg,Place,Name,Team,BodyweightKg,Best3SquatKg,Best3BenchKg,Best3DeadliftKg,TotalKg,Equipment,Event,Sex
Boys,51.71,1,Juan Duran #2,Lubbock Cooper,48.81,124.74,74.84,147.42,347,Single-ply,SBD,M
Boys,51.71,2,Landon Nail,Lubbock Cooper,50.62,115.67,54.43,129.27,299.37,Single-ply,SBD,M
Boys,51.71,3,Israel Hernandez,Lubbock Cooper,46.45,92.99,58.97,113.4,265.35,Single-ply,SBD,M
Boys,51.71,4,Derek Tovar,Sudan,49.26,79.38,58.97,113.4,251.74,Single-ply,SBD,M
Boys,51.71,DQ,Alex Urbano,Meadow,48.08,,,,,Single-ply,SBD,M
Boys,51.71,DQ,Gage Rigdon,Meadow,51.62,99.79,,,,Single-ply,SBD,M
Boys,55.79,1,Arturo Rodriguez,Meadow,53.61,133.81,72.57,142.88,349.27,Single-ply,SBD,M
Boys,55.79,2,Adrian Perez,Meadow,54.88,115.67,70.31,138.35,324.32,Single-ply,SBD,M
Boys,55.79,3,Mathew Morado,Meadow,55.16,81.65,47.63,108.86,238.14,Single-ply,SBD,M
Boys,55.79,4,Teaguen Nolte,Sudan,55.79,77.11,54.43,97.52,229.06,Single-ply,SBD,M
Boys,59.87,DQ,Angel Rodríguez #6,Meadow,56.02,108.86,,,,Single-ply,SBD,M
Boys,55.79,DQ,Josh Duran,Brownfield,55.79,74.84,,,,Single-ply,SBD,M
Boys,59.87,1,Adam Martin,Sudan,59.78,172.37,88.45,190.51,451.32,Single-ply,SBD,M
Boys,59.87,2,JD Rojas,Lubbock Roosevelt,59.06,145.15,95.25,181.44,421.84,Single-ply,SBD,M
Boys,59.87,3,Jeremy Reeves,Lubbock Cooper,59.87,136.08,88.45,151.95,376.48,Single-ply,SBD,M
Boys,67.13,4,Blake Allen,Lubbock Roosevelt,59.96,115.67,74.84,136.08,326.59,Single-ply,SBD,M
Boys,59.87,5,Marco Godinez,Sudan,59.87,117.93,65.77,131.54,315.25,Single-ply,SBD,M
Boys,59.87,6,Justin Rodriguez,Lubbock Cooper,58.51,97.52,65.77,136.08,299.37,Single-ply,SBD,M
Boys,59.87,7,Joey Pena,Brownfield,59.42,88.45,61.23,120.2,269.89,Single-ply,SBD,M
Boys,59.87,DQ,Johnny Hernandez,Sundown,59.24,142.88,,,,Single-ply,SBD,M
Boys,67.13,1,Joseph Hernandez,Sundown,67.13,170.1,111.13,176.9,458.13,Single-ply,SBD,M
Boys,67.13,2,Reece Harper,Sudan,63.68,156.49,95.25,204.12,455.86,Single-ply,SBD,M
Boys,67.13,3,Hadley Reynolds,Tahoka,62.14,129.27,79.38,145.15,353.8,Single-ply,SBD,M
Boys,67.13,4,Trace Cook,Tahoka,66.77,136.08,74.84,136.08,347,Single-ply,SBD,M
Boys,67.13,5,Alex Rodriguez #7,Sudan,66.77,117.93,68.04,133.81,319.78,Single-ply,SBD,M
Boys,67.13,6,Cameron McQueen,Meadow,66.86,115.67,63.5,127.01,306.17,Single-ply,SBD,M
Boys,67.13,7,Gary Duran,Brownfield,61.69,111.13,63.5,117.93,292.57,Single-ply,SBD,M
Boys,67.13,8,Daniel Hernandez #24,Lubbock Cooper,64.41,88.45,70.31,111.13,269.89,Single-ply,SBD,M
Boys,67.13,DQ,Cayden Melton,Meadow,61.69,,,,,Single-ply,SBD,M
Boys,67.13,DQ,Gavon Gardner,Meadow,61.23,136.08,,,,Single-ply,SBD,M
Boys,74.84,1,Jon Chavez,Sundown,72.94,197.31,95.25,199.58,492.15,Single-ply,SBD,M
Boys,74.84,2,Bj Trevino,Lubbock Cooper,74.12,185.97,104.33,188.24,478.54,Single-ply,SBD,M
Boys,74.84,3,Xavier Baker,Sudan,70.22,158.76,95.25,185.97,439.98,Single-ply,SBD,M
Boys,74.84,4,Brandon Morris,Lubbock Cooper,70.67,149.69,97.52,174.63,421.84,Single-ply,SBD,M
Boys,74.84,5,Carlos Pina,Lubbock Cooper,69.67,147.42,72.57,142.88,362.87,Single-ply,SBD,M
Boys,74.84,6,Daniel Aleman,Tahoka,72.12,140.61,81.65,140.61,362.87,Single-ply,SBD,M
Boys,74.84,7,Preston Bradley,Sudan,73.94,117.93,72.57,131.54,322.05,Single-ply,SBD,M
Boys,74.84,8,Michael Flores #6,Brownfield,73.03,90.72,65.77,124.74,281.23,Single-ply,SBD,M
Boys,74.84,9,Colby Cruz,Brownfield,72.12,86.18,65.77,124.74,276.69,Single-ply,SBD,M
Boys,74.84,DQ,Barry Johnson,Sudan,70.22,,,,,Single-ply,SBD,M
Boys,74.84,DQ,Nathan Little,Brownfield,74.84,124.74,,,,Single-ply,SBD,M
Boys,74.84,DQ,Ethan Mullins,Meadow,68.76,,,,,Single-ply,SBD,M
Boys,82.1,1,Sito Torres,Meadow,82.1,206.38,117.93,181.44,505.76,Single-ply,SBD,M
Boys,82.1,2,Ricky Mendez,Lubbock Cooper,77.75,172.37,117.93,192.78,483.08,Single-ply,SBD,M
Boys,82.1,3,Tycer Farmer,Lubbock Cooper,76.29,161.03,113.4,181.44,455.86,Single-ply,SBD,M
Boys,89.81,4,Ladd Wilkes,Sundown,82.33,163.29,104.33,181.44,449.06,Single-ply,SBD,M
Boys,82.1,5,Bradley Bandy,Brownfield,79.83,147.42,102.06,188.24,437.72,Single-ply,SBD,M
Boys,82.1,6,Nathan Besler,Brownfield,81.19,151.95,102.06,181.44,435.45,Single-ply,SBD,M
Boys,82.1,7,Christian Silva,Lubbock Roosevelt,78.47,154.22,108.86,167.83,430.91,Single-ply,SBD,M
Boys,82.1,8,Steven Sanchez,Meadow,79.02,136.08,108.86,181.44,426.38,Single-ply,SBD,M
Boys,82.1,9,Brody Schleeter,Lubbock Cooper,77.84,140.61,97.52,151.95,390.09,Single-ply,SBD,M
Boys,82.1,10,Tristan Scott,Lubbock Roosevelt,79.92,113.4,92.99,140.61,347,Single-ply,SBD,M
Boys,82.1,11,Aaron Aguirre,Brownfield,81.19,113.4,88.45,136.08,337.93,Single-ply,SBD,M
Boys,82.1,DQ,Abraham Tijerina,Brownfield,79.83,,,,,Single-ply,SBD,M
Boys,82.1,DQ,Trystan Hilger,Tahoka,75.75,,,,,Single-ply,SBD,M
Boys,89.81,1,Xavier Garza,Sundown,88.18,206.38,120.2,213.19,539.77,Single-ply,SBD,M
Boys,89.81,2,Reis Smith,Sundown,85.55,154.22,104.33,176.9,435.45,Single-ply,SBD,M
Boys,89.81,3,Isaia Montgomery,Lubbock Roosevelt,84.37,158.76,99.79,174.63,433.18,Single-ply,SBD,M
Boys,89.81,4,Dilyn Castle,Lubbock Roosevelt,85.09,151.95,99.79,181.44,433.18,Single-ply,SBD,M
Boys,89.81,5,Christian Martha,Sudan,86.09,133.81,88.45,174.63,396.89,Single-ply,SBD,M
Boys,89.81,DQ,Garrett McKinney,Lubbock Cooper,82.55,,,,,Single-ply,SBD,M
Boys,99.79,1,Roland Zamora,Meadow,94.35,238.14,151.95,238.14,628.23,Single-ply,SBD,M
Boys,99.79,2,Caelan Decker,Tahoka,93.44,181.44,124.74,188.24,494.42,Single-ply,SBD,M
Boys,99.79,3,Roy Rodriguez,Sundown,93.8,172.37,104.33,204.12,480.81,Single-ply,SBD,M
Boys,99.79,4,Andrew Waters,Lubbock Roosevelt,98.88,170.1,117.93,190.51,478.54,Single-ply,SBD,M
Boys,99.79,5,Dimitri Gomez,Lubbock Roosevelt,98.88,158.76,136.08,174.63,469.47,Single-ply,SBD,M
Boys,109.77,6,Bryce Thompson,Lubbock Cooper,99.97,181.44,90.72,170.1,442.25,Single-ply,SBD,M
Boys,99.79,7,Quinten Franks,Lubbock Cooper,91.63,165.56,81.65,192.78,439.98,Single-ply,SBD,M
Boys,99.79,8,Ross Steadman,Sudan,93.26,113.4,90.72,181.44,385.55,Single-ply,SBD,M
Boys,99.79,9,Zach Weller,Lubbock Roosevelt,99.16,120.2,83.91,158.76,362.87,Single-ply,SBD,M
Boys,99.79,10,Seth Cruz,Brownfield,96.16,124.74,86.18,142.88,353.8,Single-ply,SBD,M
Boys,109.77,1,Sebastian Lopez,Lubbock Cooper,103.24,195.04,147.42,215.46,557.92,Single-ply,SBD,M
Boys,109.77,2,Justin Chavez,Sundown,107.68,213.19,127.01,195.04,535.24,Single-ply,SBD,M
Boys,109.77,3,Jackson Stevens,Lubbock Cooper,108.23,190.51,136.08,174.63,501.22,Single-ply,SBD,M
Boys,109.77,4,Roman Alvarado,Brownfield,109.32,192.78,113.4,176.9,483.08,Single-ply,SBD,M
Boys,109.77,DQ,Matthew Duenes,Lubbock Roosevelt,102.06,,,,,Single-ply,SBD,M
Boys,109.77,DQ,Isaac Ramirez,Lubbock Roosevelt,105.51,192.78,129.27,,,Single-ply,SBD,M
Boys,124.74,1,Jeremiah DeLeon,Tahoka,112.85,249.48,181.44,201.85,632.76,Single-ply,SBD,M
Boys,124.74,2,Jonathan Aguilar,Lubbock Roosevelt,124.56,210.92,129.27,199.58,539.77,Single-ply,SBD,M
Boys,124.74,3,Jet Grant,Sundown,110.95,190.51,122.47,185.97,498.95,Single-ply,SBD,M
Boys,124.74,4,Jericho Garcia,Brownfield,115.67,113.4,88.45,170.1,371.95,Single-ply,SBD,M
Boys,124.74,DQ,Kevin Shoemaker,Lubbock Roosevelt,115.67,,,,,Single-ply,SBD,M
Boys,124.74+,1,Joseph Villarreal,Lubbock Roosevelt,140.61,222.26,136.08,231.33,589.67,Single-ply,SBD,M
Boys,124.74+,2,Tony Garcia,Tahoka,160.12,192.78,92.99,188.24,474,Single-ply,SBD,M
