Division,WeightClassKg,Place,Name,Team,BodyweightKg,Best3SquatKg,Best3BenchKg,Best3DeadliftKg,TotalKg,Equipment,Event,Sex
Boys,51.71,1,Mikey Gomez,Kyle Lehman,51.71,124.74,72.57,145.15,342.46,Single-ply,SBD,M
Boys,51.71,2,Brian Villarreal,Geronimo Navarro,48.9,102.06,68.04,136.08,306.17,Single-ply,SBD,M
Boys,55.79,1,Eric Ramirez,San Marcos,54.34,88.45,65.77,120.2,274.42,Single-ply,SBD,M
Boys,59.87,1,Justin Lara,Buda Hays,59.78,158.76,95.25,181.44,435.45,Single-ply,SBD,M
Boys,59.87,2,Leo Calderon,San Marcos,58.42,133.81,104.33,138.35,376.48,Single-ply,SBD,M
Boys,59.87,3,Jaydan Martinez,Kyle Lehman,59.15,136.08,83.91,156.49,376.48,Single-ply,SBD,M
Boys,59.87,4,Alex Mata,Lockhart,57.97,127.01,70.31,149.69,347,Single-ply,SBD,M
Boys,59.87,5,Zeke Martinez,San Marcos,57.06,122.47,83.91,138.35,344.73,Single-ply,SBD,M
Boys,59.87,6,Austin Carrow,Austin Lake Travis,56.52,102.06,70.31,136.08,308.44,Single-ply,SBD,M
Boys,59.87,7,Chase Gibson,College Station A&M Cons,59.78,99.79,54.43,102.06,256.28,Single-ply,SBD,M
Boys,59.87,DQ,Logan Roberts,Buda Hays,58.97,,,,,Single-ply,SBD,M
Boys,67.13,1,Oscar Sanchez,Seguin,63.32,154.22,102.06,192.78,449.06,Single-ply,SBD,M
Boys,67.13,2,Hugo Perez,Lockhart,66.86,161.03,77.11,192.78,430.91,Single-ply,SBD,M
Boys,67.13,3,Sam Lawson #2,Seguin,67.13,165.56,81.65,183.7,430.91,Single-ply,SBD,M
Boys,67.13,4,Sam Muniz,San Marcos,62.23,136.08,83.91,181.44,401.43,Single-ply,SBD,M
Boys,67.13,5,Kaleb Chandler,College Station A&M Cons,65.23,131.54,70.31,149.69,351.53,Single-ply,SBD,M
Boys,67.13,6,Jacob Acosta,Lockhart,65.5,124.74,70.31,138.35,333.39,Single-ply,SBD,M
Boys,67.13,7,Brandon Palomares,Seguin,61.33,104.33,83.91,138.35,326.59,Single-ply,SBD,M
Boys,67.13,8,Harley Frank,Kyle Lehman,66.95,124.74,72.57,124.74,322.05,Single-ply,SBD,M
Boys,67.13,9,Jacob Gonzales,Lockhart,66.77,117.93,70.31,124.74,312.98,Single-ply,SBD,M
Boys,67.13,10,Jacob Slocum,Austin Lake Travis,64.95,117.93,61.23,127.01,306.17,Single-ply,SBD,M
Boys,67.13,DQ,James Glomb,Austin Lake Travis,67.13,,,,,Single-ply,SBD,M
Boys,67.13,DQ,David Montealvo,Seguin,67.13,,,,,Single-ply,SBD,M
Boys,67.13,DQ,Julian Mata,Kyle Lehman,65.5,95.25,,,,Single-ply,SBD,M
Boys,74.84,1,Greg Rivera,Lockhart,74.84,161.03,97.52,192.78,451.32,Single-ply,SBD,M
Boys,74.84,2,Albian Leyva,San Marcos,74.66,161.03,102.06,185.97,449.06,Single-ply,SBD,M
Boys,74.84,3,Manny Salazar,San Marcos,73.94,149.69,102.06,183.7,435.45,Single-ply,SBD,M
Boys,74.84,4,Robert Holguin,San Marcos,73.03,170.1,92.99,170.1,433.18,Single-ply,SBD,M
Boys,74.84,5,Justin Alexander,Universal City Randolph,69.22,133.81,102.06,167.83,403.7,Single-ply,SBD,M
Boys,74.84,6,TaJari Benson,College Station A&M Cons,72.39,151.95,79.38,172.37,403.7,Single-ply,SBD,M
Boys,74.84,7,Kevin Best,Manor,68.04,136.08,88.45,142.88,367.41,Single-ply,SBD,M
Boys,74.84,8,Luke Jackson,Buda Hays,73.57,127.01,83.91,145.15,356.07,Single-ply,SBD,M
Boys,74.84,9,Trevor Williams,College Station A&M Cons,68.49,133.81,83.91,136.08,353.8,Single-ply,SBD,M
Boys,74.84,10,Joel Hinojosa,Seguin,69.85,115.67,79.38,154.22,349.27,Single-ply,SBD,M
Boys,74.84,11,Eddie Lopez,Universal City Randolph,71.21,111.13,79.38,149.69,340.19,Single-ply,SBD,M
Boys,74.84,12,Tre Moreno,Kyle Lehman,72.21,124.74,77.11,138.35,340.19,Single-ply,SBD,M
Boys,74.84,13,Alex Gill,Universal City Randolph,70.03,127.01,74.84,133.81,335.66,Single-ply,SBD,M
Boys,74.84,14,Colton Barrett,Geronimo Navarro,72.85,102.06,72.57,120.2,294.84,Single-ply,SBD,M
Boys,74.84,DQ,Nick Vasquez,College Station A&M Cons,74.66,145.15,,,,Single-ply,SBD,M
Boys,74.84,DQ,Jayce Williams,Buda Hays,69.67,142.88,,,,Single-ply,SBD,M
Boys,74.84,DQ,Marc Pickett,Kyle Lehman,74.21,158.76,133.81,,,Single-ply,SBD,M
Boys,82.1,1,Jonathon Sylvester,College Station A&M Cons,81.74,204.12,115.67,206.38,526.17,Single-ply,SBD,M
Boys,82.1,2,Tiki Mondragon,Kyle Lehman,79.47,188.24,138.35,188.24,514.83,Single-ply,SBD,M
Boys,82.1,3,Grant Schlaht,Lockhart,81.01,192.78,127.01,174.63,494.42,Single-ply,SBD,M
Boys,82.1,4,Devin Norman,Lockhart,80.92,161.03,115.67,154.22,430.91,Single-ply,SBD,M
Boys,82.1,5,Prudy Calderon,San Marcos,80.01,149.69,83.91,156.49,390.09,Single-ply,SBD,M
Boys,82.1,6,Brian Martinez,Kyle Lehman,78.02,129.27,77.11,161.03,367.41,Single-ply,SBD,M
Boys,82.1,7,Nick Cruz,Lockhart,75.75,136.08,79.38,145.15,360.61,Single-ply,SBD,M
Boys,82.1,8,Luis Rodriguez #7,Geronimo Navarro,78.83,111.13,72.57,124.74,308.44,Single-ply,SBD,M
Boys,82.1,DQ,Garrett Bressette,Austin Lake Travis,82.1,,,,,Single-ply,SBD,M
Boys,82.1,DQ,Santiago Villegas,Austin Lake Travis,81.65,,,,,Single-ply,SBD,M
Boys,82.1,DQ,Gabe Flores,Buda Hays,80.38,179.17,,,,Single-ply,SBD,M
Boys,82.1,DQ,Nick Baca,Buda Hays,81.1,140.61,,,,Single-ply,SBD,M
Boys,89.81,1,Jared Leal,Geronimo Navarro,83.55,192.78,115.67,199.58,508.02,Single-ply,SBD,M
Boys,89.81,2,Preston Ellison,Buda Hays,87.72,183.7,117.93,185.97,487.61,Single-ply,SBD,M
Boys,89.81,3,Joseph Castillo,Seguin,85.55,183.7,129.27,172.37,485.34,Single-ply,SBD,M
Boys,89.81,4,Kevin Leonard,College Station A&M Cons,85.91,154.22,102.06,170.1,426.38,Single-ply,SBD,M
Boys,89.81,5,David Muñoz,Geronimo Navarro,89.81,147.42,90.72,161.03,399.16,Single-ply,SBD,M
Boys,89.81,6,Stone Sahd,Geronimo Navarro,88,131.54,77.11,145.15,353.8,Single-ply,SBD,M
Boys,89.81,DQ,Matthew Herrera,Austin Lake Travis,87.54,165.56,,,,Single-ply,SBD,M
Boys,99.79,1,Curtis Hawkins,Lockhart,98.16,244.94,138.35,238.14,621.42,Single-ply,SBD,M
Boys,99.79,2,Joseph Frengel,Austin Lake Travis,93.08,226.8,142.88,235.87,605.55,Single-ply,SBD,M
Boys,99.79,3,Josh Mercado,San Marcos,93.8,229.06,145.15,226.8,601.01,Single-ply,SBD,M
Boys,99.79,4,Darius Jones #2,Lockhart,92.53,165.56,138.35,235.87,539.77,Single-ply,SBD,M
Boys,99.79,5,Shawn Schmidt,Geronimo Navarro,96.25,195.04,136.08,204.12,535.24,Single-ply,SBD,M
Boys,99.79,6,Jose Hernandez #5,San Marcos,97.34,210.92,111.13,170.1,492.15,Single-ply,SBD,M
Boys,99.79,7,Ramsey Tijerina,San Marcos,93.26,183.7,102.06,190.51,476.27,Single-ply,SBD,M
Boys,99.79,8,Nakia Watson,Manor,91.53,174.63,102.06,192.78,469.47,Single-ply,SBD,M
Boys,99.79,9,Abel Longoria,Kyle Lehman,93.71,170.1,111.13,170.1,451.32,Single-ply,SBD,M
Boys,99.79,10,Matt Reyes,Buda Hays,90.9,176.9,83.91,188.24,449.06,Single-ply,SBD,M
Boys,99.79,11,D'Angelo Sutton,Seguin,94.71,140.61,90.72,174.63,405.97,Single-ply,SBD,M
Boys,99.79,12,Rason Sheppard,Manor,90.54,142.88,79.38,163.29,385.55,Single-ply,SBD,M
Boys,99.79,13,Harley Ullrich,Seguin,93.53,113.4,79.38,129.27,322.05,Single-ply,SBD,M
Boys,99.79,DQ,Garrett Womack,Austin Lake Travis,90.72,,,,,Single-ply,SBD,M
Boys,99.79,DQ,Will Sullivan,College Station A&M Cons,98.25,163.29,,,,Single-ply,SBD,M
Boys,99.79,DQ,Carl Ferguson,Kyle Lehman,99.61,,,,,Single-ply,SBD,M
Boys,99.79,DQ,Matthew Georg,Seguin,98.43,,,,,Single-ply,SBD,M
Boys,99.79,DQ,Duncan Baker,Seguin,99.79,,,,,Single-ply,SBD,M
Boys,109.77,1,Lane Springs,Geronimo Navarro,105.14,233.6,131.54,208.65,573.79,Single-ply,SBD,M
Boys,109.77,2,Cody Kuhl,Universal City Randolph,106.32,181.44,113.4,188.24,483.08,Single-ply,SBD,M
Boys,109.77,3,Josh Sanchez,Geronimo Navarro,109.5,192.78,88.45,165.56,446.79,Single-ply,SBD,M
Boys,109.77,4,Tyler Sparks,Seguin,103.87,113.4,77.11,149.69,340.19,Single-ply,SBD,M
Boys,109.77,DQ,Jordan Smith #6,College Station A&M Cons,108.32,,,,,Single-ply,SBD,M
Boys,124.74,1,Jeremy Rodriguez #2,Geronimo Navarro,110.4,267.62,165.56,210.92,644.1,Single-ply,SBD,M
Boys,124.74,2,Seth Seale,Buda Hays,118.48,210.92,147.42,219.99,578.33,Single-ply,SBD,M
Boys,124.74,3,Brian Prickett,Kyle Lehman,119.02,170.1,115.67,199.58,485.34,Single-ply,SBD,M
Boys,124.74,4,Marshall Crabb,Geronimo Navarro,111.04,165.56,120.2,195.04,480.81,Single-ply,SBD,M
Boys,124.74,5,Nial Creager,College Station A&M Cons,115.67,179.17,111.13,170.1,460.4,Single-ply,SBD,M
Boys,124.74,6,Koy Spano,Austin Lake Travis,113.94,133.81,97.52,158.76,390.09,Single-ply,SBD,M
Boys,124.74,DQ,Jeff Gibbs,Austin Lake Travis,111.13,,,,,Single-ply,SBD,M
Boys,124.74,DQ,Sammy Ochoa,Austin Lake Travis,115.67,,,,,Single-ply,SBD,M
Boys,124.74+,1,Cesar Romero,Universal City Randolph,133.08,208.65,117.93,226.8,553.38,Single-ply,SBD,M
Boys,124.74+,2,Anthony Hill,Manor,156.49,113.4,92.99,163.29,369.68,Single-ply,SBD,M
Boys,124.74+,3,Jose Ortiz,Manor,129.73,106.59,90.72,154.22,351.53,Single-ply,SBD,M
Boys,124.74+,DQ,David Brown #11,Manor,132.9,183.7,,,,Single-ply,SBD,M
Boys,124.74+,DQ,Carlos Morales,Kyle Lehman,137.62,,,,,Single-ply,SBD,M
Boys,124.74+,DQ,Mateo Mendoza,Buda Hays,144.61,,,,,Single-ply,SBD,M
